<?xml version="1.0" encoding="UTF-8"?>
<svg width="310px" height="71px" viewBox="0 0 310 71" version="1.1" xmlns="http://www.w3.org/2000/svg" xmlns:xlink="http://www.w3.org/1999/xlink">
    <!-- Generator: Sketch 48.2 (47327) - http://www.bohemiancoding.com/sketch -->
    <title>Group 7</title>
    <desc>Created with Sketch.</desc>
    <defs></defs>
    <g id="Success-Modal" stroke="none" stroke-width="1" fill="none" fill-rule="evenodd" transform="translate(-565.000000, -133.000000)">
        <g id="Group-7" transform="translate(565.000000, 133.000000)" fill="#222222">
            <g id="Group-2" transform="translate(0.000000, 2.000000)">
                <g id="Group-5-Copy-2">
                    <path d="M32.6545313,45.7305951 C28.5381851,49.8202356 24.2013666,51.429081 18.9255958,51.429081 C8.59712015,51.429081 0,45.14711 0,32.3655083 C0,19.5812842 8.59712015,13.3006244 18.9255958,13.3006244 C23.9860819,13.3006244 27.8871435,14.7599928 31.7882051,18.6319737 L26.2245235,24.5494304 C24.1287404,22.649498 21.5297619,21.7001874 19.0708481,21.7001874 C13.1479264,21.7001874 8.8124048,26.0835373 8.8124048,32.3655083 C8.8124048,39.2296533 13.4371341,42.8826633 18.9255958,42.8826633 C21.7450465,42.8826633 24.5632004,42.0802074 26.7316097,39.8878769 L32.6545313,45.7305951 L32.6545313,45.7305951 Z" id="Shape"></path>
                    <path d="M72.0673058,32.622175 C72.0673058,42.91146 65.0572719,51.2417483 53.4979801,51.2417483 C41.9360939,51.2417483 35,42.91146 35,32.622175 C35,22.4044337 42.0800824,14 53.4240401,14 C64.7705921,14 72.0673058,22.4044337 72.0673058,32.622175 L72.0673058,32.622175 Z M43.813133,32.622175 C43.813133,38.0568947 47.0639001,43.1273919 53.4979801,43.1273919 C59.9294657,43.1273919 63.1789356,38.0568947 63.1789356,32.622175 C63.1789356,27.258999 59.4222631,22.041512 53.4979801,22.041512 C47.1378401,22.041512 43.813133,27.258999 43.813133,32.622175 L43.813133,32.622175 Z" id="Shape"></path>
                    <rect id="Rectangle-path" x="0" y="0" width="72.3695019" height="7.09366635"></rect>
                </g>
            </g>
            <path d="M78,17.0759494 L86.5592233,17.0759494 L86.5592233,22.842827 L86.7093851,22.842827 C87.5102521,21.0453497 88.899235,19.4600983 90.8763754,18.0870253 C92.8535158,16.7139523 95.193514,16.0274262 97.8964401,16.0274262 C100.248987,16.0274262 102.263638,16.4393419 103.940453,17.2631857 C105.617268,18.0870294 106.993738,19.172989 108.069903,20.521097 C109.146068,21.8692051 109.93441,23.4170095 110.434951,25.164557 C110.935493,26.9121044 111.185761,28.7095548 111.185761,30.556962 L111.185761,53.0253165 L102.176052,53.0253165 L102.176052,33.1033755 C102.176052,32.0548471 102.100972,30.9564052 101.950809,29.8080169 C101.800646,28.6596286 101.475299,27.6235981 100.974757,26.6998945 C100.474215,25.7761909 99.7859806,25.0147709 98.9100324,24.4156118 C98.0340841,23.8164527 96.8703417,23.5168776 95.4187702,23.5168776 C93.9671988,23.5168776 92.7158629,23.8039704 91.6647249,24.3781646 C90.613587,24.9523587 89.7501652,25.6888141 89.0744337,26.5875527 C88.3987021,27.4862914 87.8856544,28.5223218 87.5352751,29.6956751 C87.1848958,30.8690284 87.0097087,32.0548463 87.0097087,33.2531646 L87.0097087,53.0253165 L78,53.0253165 L78,17.0759494 Z M158.33657,17.0759494 L158.33657,49.8048523 C158.33657,53.0502975 157.936142,55.9836367 157.135275,58.6049578 C156.334408,61.2262789 155.095586,63.4481273 153.41877,65.2705696 C151.741955,67.0930119 149.627197,68.5035112 147.074434,69.5021097 C144.52167,70.5007082 141.493437,71 137.989644,71 C136.538073,71 134.998929,70.8751771 133.372168,70.6255274 C131.745407,70.3758778 130.143697,70.001409 128.56699,69.5021097 C126.990283,69.0028104 125.476167,68.3786957 124.024595,67.6297468 C122.573024,66.8807979 121.271635,66.0320019 120.120388,65.0833333 L125.300971,58.1181435 C127.052867,59.765831 129.029978,61.0265427 131.232362,61.9003165 C133.434747,62.7740902 135.662125,63.2109705 137.914563,63.2109705 C140.066893,63.2109705 141.88133,62.8989131 143.357929,62.274789 C144.834527,61.650665 146.010783,60.7893866 146.886731,59.6909283 C147.76268,58.5924699 148.388348,57.2943113 148.763754,55.7964135 C149.13916,54.2985157 149.326861,52.6508529 149.326861,50.8533755 L149.326861,48.2320675 L149.176699,48.2320675 C147.87529,49.9796149 146.211013,51.3152204 144.183819,52.2389241 C142.156624,53.1626277 139.891706,53.6244726 137.388997,53.6244726 C134.686071,53.6244726 132.233452,53.1251808 130.031068,52.1265823 C127.828684,51.1279838 125.964193,49.779896 124.43754,48.0822785 C122.910888,46.384661 121.722119,44.3999762 120.871197,42.1281646 C120.020276,39.8563529 119.594822,37.4472701 119.594822,34.9008439 C119.594822,32.3044877 120.007763,29.857958 120.833657,27.5611814 C121.659551,25.2644048 122.835807,23.2672377 124.36246,21.5696203 C125.889112,19.8720028 127.741089,18.523915 129.918447,17.5253165 C132.095804,16.5267179 134.535909,16.0274262 137.238835,16.0274262 C139.791599,16.0274262 142.169137,16.5516825 144.371521,17.600211 C146.573905,18.6487394 148.325776,20.2714377 149.627184,22.4683544 L149.777346,22.4683544 L149.777346,17.0759494 L158.33657,17.0759494 Z M139.115858,23.3670886 C137.464069,23.3670886 136.000006,23.6666637 134.723625,24.2658228 C133.447243,24.8649819 132.371094,25.676331 131.495146,26.6998945 C130.619197,27.723458 129.943476,28.9342405 129.467961,30.3322785 C128.992446,31.7303164 128.754693,33.2281917 128.754693,34.8259494 C128.754693,36.2739172 128.992446,37.6719342 129.467961,39.0200422 C129.943476,40.3681502 130.619197,41.5789327 131.495146,42.6524262 C132.371094,43.7259196 133.447243,44.5871979 134.723625,45.2362869 C136.000006,45.885376 137.439043,46.2099156 139.040777,46.2099156 C140.692565,46.2099156 142.181655,45.8978583 143.508091,45.2737342 C144.834527,44.6496101 145.960729,43.8132964 146.886731,42.7647679 C147.812734,41.7162395 148.525995,40.5054569 149.026537,39.132384 C149.527079,37.759311 149.777346,36.3238472 149.777346,34.8259494 C149.777346,33.2781217 149.527079,31.8052109 149.026537,30.407173 C148.525995,29.0091351 147.812734,27.7858702 146.886731,26.7373418 C145.960729,25.6888133 144.84704,24.8649819 143.545631,24.2658228 C142.244222,23.6666637 140.767646,23.3670886 139.115858,23.3670886 Z M169.14822,17.0759494 L177.782524,17.0759494 L177.782524,23.0675105 L177.932686,23.0675105 C178.93377,20.9704536 180.335266,19.2728616 182.137217,17.9746835 C183.939168,16.6765055 186.041412,16.0274262 188.444013,16.0274262 C188.794392,16.0274262 189.169793,16.0399085 189.570227,16.0648734 C189.97066,16.0898384 190.321034,16.1522499 190.621359,16.2521097 L190.621359,24.4905063 C190.020709,24.3407166 189.507661,24.2408582 189.082201,24.1909283 C188.65674,24.1409983 188.243799,24.1160338 187.843366,24.1160338 C185.791144,24.1160338 184.139381,24.4905026 182.888026,25.2394515 C181.636671,25.9884004 180.660629,26.8871256 179.959871,27.935654 C179.259112,28.9841825 178.783604,30.0576598 178.533333,31.1561181 C178.283062,32.2545765 178.157929,33.1283371 178.157929,33.7774262 L178.157929,53.0253165 L169.14822,53.0253165 L169.14822,17.0759494 Z M218.85178,48.4567511 L218.626537,48.4567511 C217.725562,50.0545087 216.274012,51.3651496 214.271845,52.3887131 C212.269677,53.4122766 209.992246,53.9240506 207.439482,53.9240506 C205.987911,53.9240506 204.473794,53.7368162 202.897087,53.3623418 C201.32038,52.9878673 199.868831,52.3637526 198.542395,51.4899789 C197.215959,50.6162052 196.114783,49.4678341 195.238835,48.0448312 C194.362887,46.6218283 193.924919,44.8618248 193.924919,42.7647679 C193.924919,40.0685519 194.688234,37.9215973 196.214887,36.3238397 C197.741539,34.726082 199.706137,33.5028172 202.108738,32.6540084 C204.511339,31.8051997 207.176684,31.2434965 210.104854,30.9688819 C213.033024,30.6942673 215.898584,30.556962 218.701618,30.556962 L218.701618,29.6582278 C218.701618,27.4113812 217.88825,25.751236 216.261489,24.6777426 C214.634728,23.6042492 212.695157,23.0675105 210.442718,23.0675105 C208.540659,23.0675105 206.713709,23.466944 204.961812,24.2658228 C203.209916,25.0647016 201.758366,26.0383206 200.60712,27.1867089 L195.952104,21.7194093 C198.004325,19.8220721 200.36935,18.3990905 203.047249,17.4504219 C205.725148,16.5017533 208.440547,16.0274262 211.193528,16.0274262 C214.396996,16.0274262 217.037314,16.4767888 219.114563,17.3755274 C221.191812,18.2742661 222.831062,19.4476018 224.032362,20.8955696 C225.233663,22.3435375 226.072058,23.9662357 226.547573,25.7637131 C227.023088,27.5611904 227.260841,29.3586408 227.260841,31.1561181 L227.260841,53.0253165 L218.85178,53.0253165 L218.85178,48.4567511 Z M218.701618,36.6234177 L216.674434,36.6234177 C215.222862,36.6234177 213.696232,36.6858292 212.094498,36.810654 C210.492764,36.9354788 209.016188,37.2100893 207.664725,37.6344937 C206.313262,38.058898 205.18706,38.6580482 204.286084,39.431962 C203.385109,40.2058759 202.934628,41.2668709 202.934628,42.6149789 C202.934628,43.4637876 203.122328,44.1752784 203.497735,44.7494726 C203.873141,45.3236667 204.361162,45.7855116 204.961812,46.1350211 C205.562463,46.4845306 206.238184,46.7341765 206.988997,46.8839662 C207.73981,47.033756 208.490611,47.1086498 209.241424,47.1086498 C212.344784,47.1086498 214.697295,46.2848184 216.299029,44.6371308 C217.900763,42.9894432 218.701618,40.7426303 218.701618,37.8966245 L218.701618,36.6234177 Z M232.591586,24.2658228 L232.591586,17.0759494 L238.898382,17.0759494 L238.898382,6.66561181 L247.757929,6.66561181 L247.757929,17.0759494 L256.767638,17.0759494 L256.767638,24.2658228 L247.757929,24.2658228 L247.757929,40.9672996 C247.757929,42.5650572 248.045736,43.8881804 248.621359,44.9367089 C249.196982,45.9852373 250.485858,46.5094937 252.488026,46.5094937 C253.088676,46.5094937 253.739371,46.4470822 254.440129,46.3222574 C255.140888,46.1974326 255.766556,46.0101982 256.317152,45.7605485 L256.617476,52.8006329 C255.816609,53.1002125 254.865593,53.3373761 253.764401,53.5121308 C252.663209,53.6868855 251.612087,53.7742616 250.611003,53.7742616 C248.208402,53.7742616 246.256318,53.4372397 244.754693,52.7631857 C243.253067,52.0891317 242.064298,51.1654419 241.18835,49.9920886 C240.312401,48.8187353 239.71176,47.4706476 239.386408,45.9477848 C239.061056,44.4249221 238.898382,42.7897415 238.898382,41.0421941 L238.898382,24.2658228 L232.591586,24.2658228 Z M283.045955,26.6624473 C282.245088,25.6139188 281.143912,24.7027113 279.742395,23.9287975 C278.340878,23.1548836 276.814248,22.7679325 275.16246,22.7679325 C273.710888,22.7679325 272.384472,23.0675076 271.183172,23.6666667 C269.981871,24.2658258 269.38123,25.2644093 269.38123,26.6624473 C269.38123,28.0604852 270.044438,29.0465864 271.370874,29.6207806 C272.69731,30.1949747 274.63688,30.7816426 277.189644,31.3808017 C278.541107,31.6803812 279.905063,32.0798147 281.281553,32.5791139 C282.658044,33.0784132 283.909379,33.7399748 285.035599,34.5638186 C286.161818,35.3876623 287.075293,36.4112105 287.776052,37.6344937 C288.47681,38.8577769 288.827184,40.3431699 288.827184,42.0907173 C288.827184,44.2876341 288.414244,46.1474959 287.58835,47.6703586 C286.762455,49.1932214 285.66128,50.4289685 284.28479,51.3776371 C282.908299,52.3263057 281.30659,53.0128319 279.479612,53.4372363 C277.652634,53.8616407 275.763117,54.0738397 273.811003,54.0738397 C271.007969,54.0738397 268.280056,53.5620656 265.627184,52.5385021 C262.974313,51.5149386 260.771961,50.0545102 259.020065,48.157173 L264.951456,42.6149789 C265.95254,43.913157 267.253929,44.9866343 268.855663,45.835443 C270.457397,46.6842518 272.234294,47.1086498 274.186408,47.1086498 C274.837112,47.1086498 275.50032,47.033756 276.176052,46.8839662 C276.851783,46.7341765 277.477451,46.4970129 278.053074,46.1724684 C278.628698,45.8479238 279.091692,45.4110435 279.442071,44.8618143 C279.792451,44.3125852 279.967638,43.6385413 279.967638,42.8396624 C279.967638,41.3417647 279.279403,40.2682874 277.902913,39.6191983 C276.526422,38.9701093 274.461718,38.32103 271.708738,37.6719409 C270.357275,37.3723614 269.043372,36.9854102 267.76699,36.5110759 C266.490609,36.0367417 265.351893,35.4126269 264.350809,34.6387131 C263.349725,33.8647992 262.54887,32.9036626 261.94822,31.7552743 C261.34757,30.606886 261.047249,29.1839044 261.047249,27.4862869 C261.047249,25.4890899 261.46019,23.7665333 262.286084,22.3185654 C263.111978,20.8705975 264.20064,19.6847796 265.552104,18.7610759 C266.903567,17.8373723 268.430196,17.1508461 270.132039,16.7014768 C271.833881,16.2521075 273.585752,16.0274262 275.387702,16.0274262 C277.99052,16.0274262 280.530732,16.4767888 283.008414,17.3755274 C285.486097,18.2742661 287.450694,19.6473185 288.902265,21.4947257 L283.045955,26.6624473 Z M308.498382,36.3987342 L299.488673,36.3987342 L299.488673,-5.68434189e-14 L308.498382,-5.68434189e-14 L308.498382,36.3987342 Z M297.987055,47.7827004 C297.987055,46.1849428 298.575183,44.8118904 299.751456,43.6635021 C300.92773,42.5151138 302.341739,41.9409283 303.993528,41.9409283 C305.595262,41.9409283 306.996758,42.4901492 308.198058,43.5886076 C309.399359,44.687066 310,46.0351538 310,47.6329114 C310,49.230669 309.411872,50.6037214 308.235599,51.7521097 C307.059325,52.900498 305.645316,53.4746835 303.993528,53.4746835 C303.192661,53.4746835 302.429346,53.324896 301.70356,53.0253165 C300.977774,52.7257369 300.339593,52.3263035 299.788997,51.8270042 C299.238401,51.327705 298.800433,50.7285548 298.475081,50.0295359 C298.149729,49.3305169 297.987055,48.5815792 297.987055,47.7827004 Z" id="congrats!-Message-de"></path>
        </g>
    </g>
</svg>