<?xml version="1.0" encoding="UTF-8"?>
<svg width="165px" height="165px" viewBox="0 0 165 165" version="1.1" xmlns="http://www.w3.org/2000/svg" xmlns:xlink="http://www.w3.org/1999/xlink">
    <!-- Generator: Sketch 48.2 (47327) - http://www.bohemiancoding.com/sketch -->
    <title>Group 22</title>
    <desc>Created with Sketch.</desc>
    <defs></defs>
    <g id="Success-Modal" stroke="none" stroke-width="1" fill="none" fill-rule="evenodd" transform="translate(-638.000000, -246.000000)">
        <g id="Group-22" transform="translate(638.000000, 246.000000)">
            <circle id="Oval-2" fill="#222222" opacity="0.149999991" cx="82.5" cy="82.5" r="82.5"></circle>
            <polygon id="Rectangle-6" fill="#8AEACE" transform="translate(82.000000, 40.000000) scale(1, -1) translate(-82.000000, -40.000000) " points="16 16 148 16 82 64"></polygon>
            <rect id="Rectangle-6" fill="#8AEACE" x="16" y="64" width="132" height="80"></rect>
            <rect id="Rectangle-9" fill="#FFFFFF" x="40" y="27" width="85" height="97"></rect>
            <g id="Group-8" transform="translate(52.000000, 46.000000)" fill="#E8E8E8">
                <rect id="Rectangle-10" x="0" y="0" width="60" height="5"></rect>
                <rect id="Rectangle-10-Copy" x="0" y="10" width="60" height="5"></rect>
            </g>
            <polygon id="Rectangle-6" fill="#E8E8E8" points="16 64 80 94.7104427 16 144"></polygon>
            <polygon id="Rectangle-6-Copy-2" fill="#E8E8E8" transform="translate(116.000000, 104.000000) scale(-1, 1) translate(-116.000000, -104.000000) " points="84 64 148 94.7104427 84 144"></polygon>
            <path d="M16,93.820325 L148,93.820325 L86.8809077,143.820325 C80.9173102,144.059892 77.7773974,144.059892 77.4611695,143.820325 C77.1449416,143.580758 56.6578851,126.914092 16,93.820325 Z" id="Rectangle-6-Copy" fill="#CECECE" transform="translate(82.000000, 118.910163) scale(1, -1) translate(-82.000000, -118.910163) "></path>
        </g>
    </g>
</svg>